{
  "results": [
    {
      "id": "68654eff7ba38f77505ba8c5",
      "name": "DCRAT Impersonating the Colombian Government",
      "description": "A new email attack distributing DCRAT, a Remote Access Trojan, has been uncovered. The threat actor impersonates a Colombian government entity to target organizations in Colombia. The attack employs multiple evasion techniques, including password-protected archives, obfuscation, steganography, base64 encoding, and multiple file drops. DCRAT features a modular architecture, comprehensive surveillance capabilities, information theft functions, system manipulation tools, file and process management, and browser credential harvesting. The attack chain involves a phishing email with a ZIP attachment containing a bat file, which drops an obfuscated vbs file. This file eventually runs a base64-encoded script that downloads and executes the final payload. The RAT employs various persistence mechanisms and anti-analysis techniques. It attempts to bypass Windows Antimalware Scan Interface (AMSI) and continuously tries to connect to its command-and-control server.",
      "author_name": "AlienVault",
      "modified": "2025-07-02T16:21:47.323000",
      "created": "2025-07-02T15:23:43.664000",
      "revision": 2,
      "tlp": "white",
      "public": 1,
      "adversary": "",
      "indicators": [
        {
          "id": 4081723106,
          "indicator": "34b8040d3dad4bd9f34738fbc3363fcda819ac479db8497fb857865cee77ad89",
          "type": "FileHash-SHA256",
          "created": "2025-07-02T15:23:44",
          "content": "",
          "title": "",
          "description": "",
          "expiration": null,
          "is_active": 1,
          "role": null
        },
        {
          "id": 4081723107,
          "indicator": "77a22e30e4cc900379fd4b04c707d2dfd174858c8e1ee3f1cbecd4ece1fab3fe",
          "type": "FileHash-SHA256",
          "created": "2025-07-02T15:23:44",
          "content": "",
          "title": "",
          "description": "",
          "expiration": null,
          "is_active": 1,
          "role": null
        },
        {
          "id": 4081723108,
          "indicator": "b0f3c7ea17875b5e1545678b3878ce268ff4bde718b66254ce01b0bb864801b8",
          "type": "FileHash-SHA256",
          "created": "2025-07-02T15:23:44",
          "content": "",
          "title": "",
          "description": "",
          "expiration": null,
          "is_active": 1,
          "role": null
        },
        {
          "id": 4081723109,
          "indicator": "db21cc64fb7a7ed9075c96600b7e7e7007a0df7cb837189c6551010a6f828590",
          "type": "FileHash-SHA256",
          "created": "2025-07-02T15:23:44",
          "content": "",
          "title": "",
          "description": "",
          "expiration": null,
          "is_active": 1,
          "role": null
        },
        {
          "id": 4031779425,
          "indicator": "176.65.144.19",
          "type": "IPv4",
          "created": "2025-07-02T15:23:44",
          "content": "",
          "title": "",
          "description": "",
          "expiration": "2025-08-01T15:00:00",
          "is_active": 1,
          "role": null
        },
        {
          "id": 4065907548,
          "indicator": "https://ia601205.us.archive.org/26/items/new_image_20250430/new_image.jpg",
          "type": "URL",
          "created": "2025-07-02T16:21:47",
          "content": "",
          "title": "",
          "description": "",
          "expiration": null,
          "is_active": 1,
          "role": null
        },
        {
          "id": 4075461367,
          "indicator": "http://paste.ee/d/jYHEqBJ3/0",
          "type": "URL",
          "created": "2025-07-02T16:21:47",
          "content": "",
          "title": "",
          "description": "",
          "expiration": null,
          "is_active": 1,
          "role": null
        },
        {
          "id": 4081787580,
          "indicator": "https://paste.ee/d/oAqRiS3g",
          "type": "URL",
          "created": "2025-07-02T16:21:47",
          "content": "",
          "title": "",
          "description": "",
          "expiration": null,
          "is_active": 1,
          "role": null
        }
      ],
      "tags": [
        "remote access trojan",
        "obfuscation",
        "credential harvesting",
        "phishing",
        "colombia",
        "dcrat",
        "persistence",
        "steganography"
      ],
      "targeted_countries": [
        "Colombia"
      ],
      "malware_families": [
        "DCRAT"
      ],
      "attack_ids": [
        "T1053.005",
        "T1113",
        "T1033",
        "T1056.001",
        "T1059.007",
        "T1204.002",
        "T1497.001",
        "T1082",
        "T1140",
        "T1112",
        "T1087",
        "T1083",
        "T1497",
        "T1057",
        "T1547.001",
        "T1566",
        "T1562.001",
        "T1571",
        "T1027",
        "T1027.003",
        "T1059.005"
      ],
      "references": [
        "https://www.fortinet.com/blog/threat-research/dcrat-impersonating-the-columbian-government"
      ],
      "industries": [
        "Government"
      ],
      "extract_source": [],
      "more_indicators": false
    }
  ],
  "count": 7304,
  "prefetch_pulse_ids": false,
  "t": 0,
  "t2": 0.01647472381591797,
  "t3": 1.665623426437378,
  "previous": null,
  "next": "https://otx.alienvault.com/api/v1/pulses/subscribed?limit=1&page=2"
}